{
  "took" : 148,
  "timed_out" : false,
  "_shards" : {
    "total" : 5,
    "successful" : 5,
    "skipped" : 0,
    "failed" : 0
  },
  "hits" : {
    "total" : 4849,
    "max_score" : 1.0,
    "hits" : [
      {
        "_index" : "movies2",
        "_type" : "movie",
        "_id" : "14",
        "_score" : 1.0,
        "_source" : {
          "fields" : {
            "directors" : [
              "David Twohy"
            ],
            "release_date" : "2013-09-04T00:00:00Z",
            "rating" : 6.8,
            "genres" : [
              "Action",
              "Sci-Fi",
              "Thriller"
            ],
            "image_url" : "http://ia.media-imdb.com/images/M/MV5BMTk5NzYwMzQ4MV5BMl5BanBnXkFtZTcwMjE5MTI1OQ@@._V1_SX400_.jpg",
            "plot" : "Left for dead on a sun-scorched planet, Riddick finds himself up against an alien race of predators. Activating an emergency beacon alerts two ships: one carrying a new breed of mercenary, the other captained by a man from Riddick's past.",
            "title" : "Riddick",
            "rank" : 14,
            "running_time_secs" : 7140,
            "actors" : [
              "Vin Diesel",
              "Karl Urban",
              "Katee Sackhoff"
            ],
            "year" : 2013
          },
          "id" : "tt1411250",
          "type" : "add"
        }
      },
      {
        "_index" : "movies2",
        "_type" : "movie",
        "_id" : "19",
        "_score" : 1.0,
        "_source" : {
          "fields" : {
            "directors" : [
              "Abdellatif Kechiche"
            ],
            "release_date" : "2013-05-23T00:00:00Z",
            "rating" : 7.3,
            "genres" : [
              "Drama",
              "Romance"
            ],
            "image_url" : "http://ia.media-imdb.com/images/M/MV5BMTQ5NTg5ODk4OV5BMl5BanBnXkFtZTgwODc4MTMzMDE@._V1_SX400_.jpg",
            "plot" : "The story of a young lesbian couple's beginning, middle and possible end.",
            "title" : "La vie d'Adèle",
            "rank" : 19,
            "running_time_secs" : 10740,
            "actors" : [
              "Léa Seydoux",
              "Adèle Exarchopoulos",
              "Salim Kechiouche"
            ],
            "year" : 2013
          },
          "id" : "tt2278871",
          "type" : "add"
        }
      },
      {
        "_index" : "movies2",
        "_type" : "movie",
        "_id" : "22",
        "_score" : 1.0,
        "_source" : {
          "fields" : {
            "directors" : [
              "Shane Black"
            ],
            "release_date" : "2013-04-18T00:00:00Z",
            "rating" : 7.4,
            "genres" : [
              "Action",
              "Adventure",
              "Sci-Fi"
            ],
            "image_url" : "http://ia.media-imdb.com/images/M/MV5BMjIzMzAzMjQyM15BMl5BanBnXkFtZTcwNzM2NjcyOQ@@._V1_SX400_.jpg",
            "plot" : "When Tony Stark's world is torn apart by a formidable terrorist called the Mandarin, he starts an odyssey of rebuilding and retribution.",
            "title" : "Iron Man 3",
            "rank" : 22,
            "running_time_secs" : 7800,
            "actors" : [
              "Robert Downey Jr.",
              "Guy Pearce",
              "Gwyneth Paltrow"
            ],
            "year" : 2013
          },
          "id" : "tt1300854",
          "type" : "add"
        }
      },
      {
        "_index" : "movies2",
        "_type" : "movie",
        "_id" : "24",
        "_score" : 1.0,
        "_source" : {
          "fields" : {
            "directors" : [
              "Don Mancini"
            ],
            "release_date" : "2013-08-02T00:00:00Z",
            "rating" : 5.7,
            "genres" : [
              "Horror",
              "Thriller"
            ],
            "image_url" : "http://ia.media-imdb.com/images/M/MV5BMjkxMjM0MDE3OF5BMl5BanBnXkFtZTcwMDQ3NzI4OQ@@._V1_SX400_.jpg",
            "plot" : "After her mother's mysterious death, Nica begins to suspect that the talking, red-haired doll her visiting niece has been playing with may be the key to recent bloodshed and chaos.",
            "title" : "Curse of Chucky",
            "rank" : 24,
            "running_time_secs" : 5820,
            "actors" : [
              "Chantal Quesnelle",
              "Fiona Dourif",
              "Danielle Bisutti"
            ],
            "year" : 2013
          },
          "id" : "tt2230358",
          "type" : "add"
        }
      },
      {
        "_index" : "movies2",
        "_type" : "movie",
        "_id" : "25",
        "_score" : 1.0,
        "_source" : {
          "fields" : {
            "directors" : [
              "James Wan"
            ],
            "release_date" : "2013-06-08T00:00:00Z",
            "rating" : 7.7,
            "genres" : [
              "Horror",
              "Thriller"
            ],
            "image_url" : "http://ia.media-imdb.com/images/M/MV5BMTM3NjA1NDMyMV5BMl5BanBnXkFtZTcwMDQzNDMzOQ@@._V1_SX400_.jpg",
            "plot" : "Paranormal investigators Ed and Lorraine Warren work to help a family terrorized by a dark presence in their farmhouse.",
            "title" : "The Conjuring",
            "rank" : 25,
            "running_time_secs" : 6720,
            "actors" : [
              "Patrick Wilson",
              "Vera Farmiga",
              "Ron Livingston"
            ],
            "year" : 2013
          },
          "id" : "tt1457767",
          "type" : "add"
        }
      },
      {
        "_index" : "movies2",
        "_type" : "movie",
        "_id" : "26",
        "_score" : 1.0,
        "_source" : {
          "fields" : {
            "directors" : [
              "Spike Lee"
            ],
            "release_date" : "2013-10-10T00:00:00Z",
            "genres" : [
              "Action",
              "Drama",
              "Mystery",
              "Thriller"
            ],
            "image_url" : "http://ia.media-imdb.com/images/M/MV5BMTk5NTEwMzI5OV5BMl5BanBnXkFtZTgwMDQ4ODUwMDE@._V1_SX400_.jpg",
            "plot" : "Obsessed with vengeance, a man sets out to find out why he was kidnapped and locked up into solitary confinement for 20 years without reason.",
            "title" : "Oldboy",
            "rank" : 26,
            "year" : 2013,
            "actors" : [
              "Josh Brolin",
              "Elizabeth Olsen",
              "Samuel L. Jackson"
            ]
          },
          "id" : "tt1321511",
          "type" : "add"
        }
      },
      {
        "_index" : "movies2",
        "_type" : "movie",
        "_id" : "29",
        "_score" : 1.0,
        "_source" : {
          "fields" : {
            "directors" : [
              "Cody Cameron",
              "Kris Pearn"
            ],
            "release_date" : "2013-09-26T00:00:00Z",
            "rating" : 6.7,
            "genres" : [
              "Animation",
              "Comedy",
              "Family",
              "Sci-Fi"
            ],
            "image_url" : "http://ia.media-imdb.com/images/M/MV5BMTYzNDM0MDI1NF5BMl5BanBnXkFtZTcwNzQ5NzYxOQ@@._V1_SX400_.jpg",
            "plot" : "Flint Lockwood now works at The Live Corp Company for his idol Chester V. But he's forced to leave his post when he learns that his most infamous machine is still operational and is churning out menacing food-animal hybrids.",
            "title" : "Cloudy with a Chance of Meatballs 2",
            "rank" : 29,
            "running_time_secs" : 5700,
            "actors" : [
              "Bill Hader",
              "Anna Faris",
              "Will Forte"
            ],
            "year" : 2013
          },
          "id" : "tt1985966",
          "type" : "add"
        }
      },
      {
        "_index" : "movies2",
        "_type" : "movie",
        "_id" : "40",
        "_score" : 1.0,
        "_source" : {
          "fields" : {
            "directors" : [
              "Joss Whedon"
            ],
            "release_date" : "2015-04-29T00:00:00Z",
            "genres" : [
              "Action",
              "Adventure",
              "Fantasy",
              "Sci-Fi"
            ],
            "image_url" : "http://ia.media-imdb.com/images/M/MV5BNjA3MTY1NzQxM15BMl5BanBnXkFtZTgwMjMwMDUzMDE@._V1_SX400_.jpg",
            "title" : "The Avengers: Age of Ultron",
            "rank" : 40,
            "year" : 2015,
            "actors" : [
              "Scarlett Johansson",
              "Chris Hemsworth",
              "James Spader"
            ]
          },
          "id" : "tt2395427",
          "type" : "add"
        }
      },
      {
        "_index" : "movies2",
        "_type" : "movie",
        "_id" : "41",
        "_score" : 1.0,
        "_source" : {
          "fields" : {
            "directors" : [
              "Sofia Coppola"
            ],
            "release_date" : "2013-05-16T00:00:00Z",
            "rating" : 5.8,
            "genres" : [
              "Crime",
              "Drama"
            ],
            "image_url" : "http://ia.media-imdb.com/images/M/MV5BMTQzMTgwMzQxN15BMl5BanBnXkFtZTcwOTcwNTY0OQ@@._V1_SX400_.jpg",
            "plot" : "Inspired by actual events, a group of fame-obsessed teenagers use the internet to track celebrities' whereabouts in order to rob their homes.",
            "title" : "The Bling Ring",
            "rank" : 41,
            "running_time_secs" : 5400,
            "actors" : [
              "Katie Chang",
              "Israel Broussard",
              "Emma Watson"
            ],
            "year" : 2013
          },
          "id" : "tt2132285",
          "type" : "add"
        }
      },
      {
        "_index" : "movies2",
        "_type" : "movie",
        "_id" : "44",
        "_score" : 1.0,
        "_source" : {
          "fields" : {
            "directors" : [
              "Steve McQueen"
            ],
            "release_date" : "2013-08-30T00:00:00Z",
            "rating" : 7.7,
            "genres" : [
              "Biography",
              "Drama",
              "History"
            ],
            "image_url" : "http://ia.media-imdb.com/images/M/MV5BMjExMTEzODkyN15BMl5BanBnXkFtZTcwNTU4NTc4OQ@@._V1_SX400_.jpg",
            "plot" : "In the antebellum United States, Solomon Northup, a free black man from upstate New York, is abducted and sold into slavery.",
            "title" : "12 Years a Slave",
            "rank" : 44,
            "running_time_secs" : 7980,
            "actors" : [
              "Chiwetel Ejiofor",
              "Michael K. Williams",
              "Michael Fassbender"
            ],
            "year" : 2013
          },
          "id" : "tt2024544",
          "type" : "add"
        }
      }
    ]
  },
  "aggregations" : {
    "nb_par_annee" : {
      "doc_count_error_upper_bound" : 54,
      "sum_other_doc_count" : 2192,
      "buckets" : [
        {
          "key" : 2013,
          "doc_count" : 448
        },
        {
          "key" : 2012,
          "doc_count" : 404
        },
        {
          "key" : 2011,
          "doc_count" : 308
        },
        {
          "key" : 2009,
          "doc_count" : 253
        },
        {
          "key" : 2010,
          "doc_count" : 249
        },
        {
          "key" : 2008,
          "doc_count" : 207
        },
        {
          "key" : 2006,
          "doc_count" : 204
        },
        {
          "key" : 2007,
          "doc_count" : 200
        },
        {
          "key" : 2005,
          "doc_count" : 170
        },
        {
          "key" : 2014,
          "doc_count" : 152
        }
      ]
    }
  }
}
